// Jest Snapshot v1, https://goo.gl/fbAQLP

exports[`should test <PostTable /> component should test PostTable component with  list of posts 1`] = `
<div
  className="post-list"
>
  <table>
    <thead>
      <tr>
        <th>
          Firstname
        </th>
        <th>
          Lastname
        </th>
        <th>
          Savings
        </th>
        <th />
      </tr>
    </thead>
    <tbody>
      <TableRow
        item={
          Object {
            "body": "Da vidimo sta se sprema",
            "id": 1,
            "title": "Novi post",
          }
        }
        key="1"
      />
      <TableRow
        item={
          Object {
            "body": "Nad Kraljevom ziva vatra seva!",
            "id": 2,
            "title": "Drugi  post",
          }
        }
        key="2"
      />
    </tbody>
  </table>
</div>
`;

exports[`should test <PostTable /> component should test default state of empty array 1`] = `
<div>
  No have posts
</div>
`;
