// Jest Snapshot v1, https://goo.gl/fbAQLP

exports[`should test <TableRow /> component should test PostRow component with data 1`] = `
<tr>
  <td>
    1
  </td>
  <td>
    Novi post
  </td>
  <td>
    Da vidimo sta se sprema
  </td>
  <td>
    <button
      className="btn btn-danger"
      onClick={[Function]}
    >
      Delete
    </button>
  </td>
</tr>
`;
